{
  "version": 243,
  "tenantid": "WCSU",
  "mobappid": 595,
  "appName": "myWCSU",
  "appDisplayName": "myWCSU",
  "homeScreenTemplate": "",
  "middlewareServerUrl": null,
  "feedbackEmail": "webmaster@wcsu.edu",
  "backgroundurl": "WCSU/background.png",
  "brandingurl": "WCSU/branding.png",
  "customStyle": ".navbar .fa-user{\r\n display:none !important;\r\n}\r\n\r\n.app-body{\r\nbackground:rgba(0,0,0,0.2);\r\n}\r\n.panel-heading{\r\nbackground:#8d8d8d !important;\r\n}\r\n.navbar-app, .navbar-brand {\r\n/* Permalink - use to edit and share this gradient: http://colorzilla.com/gradient-editor/#7e542c+0,c4996e+100 */\r\nbackground: rgb(126,84,44); /* Old browsers */\r\nbackground: -moz-linear-gradient(top,  rgba(126,84,44,1) 0%, rgba(196,153,110,1) 100%); /* FF3.6+ */\r\nbackground: -webkit-gradient(linear, left top, left bottom, color-stop(0%,rgba(126,84,44,1)), color-stop(100%,rgba(196,153,110,1))); /* Chrome,Safari4+ */\r\nbackground: -webkit-linear-gradient(top,  rgba(126,84,44,1) 0%,rgba(196,153,110,1) 100%); /* Chrome10+,Safari5.1+ */\r\nbackground: -o-linear-gradient(top,  rgba(126,84,44,1) 0%,rgba(196,153,110,1) 100%); /* Opera 11.10+ */\r\nbackground: -ms-linear-gradient(top,  rgba(126,84,44,1) 0%,rgba(196,153,110,1) 100%); /* IE10+ */\r\nbackground: linear-gradient(to bottom,  rgba(126,84,44,1) 0%,rgba(196,153,110,1) 100%); /* W3C */\r\nfilter: progid:DXImageTransform.Microsoft.gradient( startColorstr='#7e542c', endColorstr='#c4996e',GradientType=0 ); /* IE6-9 */\r\n\r\n}\r\n\r\n.navbar-brand {\r\n  width: 100%;\r\n}\r\n\r\n\r\n.navbar .sidebar-toggle .fa-bars, .navbar .btn-navbar .fa-chevron-circle-left, .navbar .btn-navbar .fa-user,.navbar .btn-navbar .fa-power-off {\r\nvertical-align:middle;\r\n}\r\n\r\na.list-group-item:active {\r\n        background-color: none !important;\r\n        opacity: 1 !important;\r\n    }\r\n    a.list-group-item:hover {\r\n        background-color: none !important;\r\n        opacity: 1 !important;\r\n    }\r\n.navbar-brand-center{\r\nfont-weight:bold;\r\n}\r\n\r\n#branding {\r\n  position:absolute !important;\r\n  bottom:25px !important;\r\n  left:0px !important;\r\n  right:0px !important;\r\n  width:95% !important;\r\n  margin:auto !important; \r\n\r\n}\r\nbody {\r\n   position:absolute;\r\n   width:100%;\r\n   height:100%;\r\n   background-size:100% 100% !important;\r\n}\r\n.icon {\r\n  width:56px;\r\n   height:56px;\r\n}\r\n.campuseai-Info {\r\n  color:white;\r\nfont-weight:bold;\r\n}\r\n.dockicon:after {\r\n   bottom:0px !important;\r\n}\r\n\r\n.dockicon {\r\n   margin-bottom:25px !important;\r\n}\r\n\r\n\r\n.blockUI i{\r\n   color:white !important;\r\n}\r\n.promptumenu_nav a.active {\r\n   background:#DB7508;\r\n   border-radius:50%;\r\n   width:10px;\r\n   height:10px;\r\n}\r\n\r\n.promptumenu_nav a {\r\n  background:#fff;\r\n   border-radius:50%;\r\n   width:10px;\r\n   height:10px;\r\n}\r\n.promptumenu_window {\r\n   overflow:visible !important; \r\n}\r\n\r\n.promptumenu_nav {\r\nmargin-bottom:-8px;\r\n}\r\n\r\n.app-body {\r\n   padding-bottom:19px !important;\r\n}\r\n\r\n.blockUI {\r\n  margin:auto !important;\r\n  left:0px  !important;\r\n  right:0px !important;\r\n  width:auto !important;\r\n}\r\n\r\n#homedata .campuseai-Info {\r\n  width:76px !important;\r\n  margin-left:-10px;\r\n}\r\n@media (min-width : 320px) and (max-width : 480px) { \r\n   .icon { width:56px !important;\r\n     height:56px !important;\r\n   }\r\n   #homedata .campuseai-Info {\r\n     width:76px !important;\r\n     margin-left:-10px;\r\n\r\n   }\r\n}\r\n\r\n@media (min-width : 320px) and (max-width : 568px) { \r\n   .icon { width:75px !important;\r\n     height:75px !important;\r\npadding:5px !important;\r\n   }\r\n   #homedata .campuseai-Info {\r\n   /*  width:83px !important;\r\nfont-size:12px;\r\n     margin-left:-8px;\r\nmargin-right:-10px;\r\nheight:27px !important;\r\npadding: 0 4px !important;\r\n\r\nline-height:13px !important;\r\ntext-align:center;*/\r\n\r\nwidth:96px !important;\r\n     font-size:12px;\r\n     margin-top:2px;\r\n     margin-left:-10px;\r\n     margin-right:-10px;\r\n   line-height:13px !important;\r\n     height:28px !important;\r\npadding: 0 4px !important;\r\n\r\n   }\r\n}\r\n\r\n@media (min-width: 768px) { \r\n   #branding {\r\n      width:80% !important;\r\n      margin:auto;    \r\n   }\r\n   .icon {\r\n      width:102px !important;\r\n      height:102px !important;\r\n    }\r\n#homedata .campuseai-Info {\r\n     width:120px !important;\r\n    margin-left:-10px;\r\n     margin-right:-10px;\r\n\r\nfont-weight:bold;\r\n   }\r\n\r\n}\r\n#devicebranding,#aboutbranding,#settingsbranding,#loginbranding {\r\nmargin: 10px 0;\r\nwidth:50% !important;\r\n}\r\n@media all and (orientation:landscape) {  \r\n   #branding {\r\n    width:50% !important;\r\n  }\r\n#devicebranding,#aboutbranding,#settingsbranding,#loginbranding{\r\nmargin: 10px 0;\r\nwidth:50% !important;\r\n}\r\n\r\n.promptumenu_nav {\r\nmargin-bottom:-15px !important;\r\n}\r\n#homedata .campuseai-Info {\r\nline-height:12.5px !important;\r\nfont-size:11px !important;\r\nheight:25px !important;\r\n}\r\n.icon{\r\n\r\npadding:8px;\r\n}\r\n\r\n}.navbar-app, .sidebar, #mainSidebar { background : #a2968a !important; } .navbar-brand, .navbar-absolute-top .btn-navbar { color : #ffffff !important; } .navbar-absolute-bottom .navbar-inverse { background :  !important; } .navbar-absolute-bottom .navbar-inverse { color :  !important; } .app { background :  !important; } .campuseai-Info { color : #ffffff !important; } #mainSidebar .list-group-item { background : #537173 !important; } #mainSidebar .list-group-item { color : #ffffff !important; } #mainSidebar .appgroup { background : #a2968a !important; } #mainSidebar .appgroup { color :  !important; } .btn-primary { background :  !important; } .btn-primary { color :  !important; } .btn-primary { border-color :  !important; } ",
  "authFunction": "function authFunction(uname, password, $http, $rootScope, success, error) {\r\n\r\n    var authSuccess = success;\r\n    var authError = error;\r\n    //Peoplesoft authentication\r\n    /*\r\n    var url = $rootScope.middlewareServerUrl + \"/services/ps/psholds\";\r\n    var data = {};\r\n    if (window.device) {\r\n        data = \"userId=\" + uname + \"&password=\" + password;\r\n    } else {\r\n        url = \"/websimulator/json?url=\" + url;\r\n        data = {\r\n            method: \"POST\",\r\n            body: \"userId=\" + uname + \"&password=\" + password\r\n        };\r\n    }\r\n    $.blockUI({\r\n        message: '<div style=\"margin: 2px; vertical-align: middle; display: inline-block\"><i class=\"icon-cog icon-spin icon-4x\"><\/i><h3>Authenticating<\/h3><\/div>'\r\n    });\r\n    alert(\"URL : \" + url);\r\n    $http.post(url, data).success(function (data, status, headers, config) {\r\n        success(data);\r\n        $.unblockUI();\r\n    }).error(function (data, status, headers, config) {\r\n        error(data);\r\n        $.unblockUI();\r\n    });\r\n*/\r\n    //Banner Authentication with CAS\r\n\r\n    /*var url = \"https://my.curry.edu/cas/v1/tickets/\";\r\n    var data = {};\r\n    if (window.device) {\r\n        data = \"username=\" + uname + \"&password=\" + password;\r\n    } else {\r\n        url = \"/websimulator/text?url=\" + url;\r\n        data = {\r\n            method: \"POST\",\r\n            body: \"username=\" + uname + \"&password=\" + password\r\n        };\r\n    }\r\n\r\n    $rootScope.generateST = function (tgt, service, callback) {\r\n        var data = {};\r\n        if (window.device) {\r\n            data = \"service=\" + service;\r\n        } else {\r\n            url = \"/websimulator/text?url=\" + \"https://my.curry.edu/cas/v1/tickets/\";\r\n            data = {\r\n                method: \"POST\",\r\n                body: \"service=\" + service\r\n            };\r\n        }\r\n\r\n        $.ajax({\r\n            url: url + tgt,\r\n            type: \"POST\",\r\n            async: true,\r\n            data: data,\r\n            error: function (response) {\r\n                alert(\"Error : \" + response);\r\n\r\n            },\r\n            success: function (data) {\r\n                //alert(\"Success : \" + data);\r\n                callback(data);\r\n            }\r\n        });\r\n\r\n    };\r\n\r\n    $.blockUI({\r\n        message: '<div style=\"margin: 2px; vertical-align: middle; display: inline-block\"><i class=\"icon-cog icon-spin icon-4x\"><\/i><h3>Authenticating<\/h3><\/div>'\r\n    });\r\n    $.ajax({\r\n        url: url,\r\n        type: \"POST\",\r\n        async: true,\r\n        data: data,\r\n        error: function (response) {\r\n            $.unblockUI();\r\n        },\r\n        success: function (data) {\r\n            //alert(\"Success : \" + data);\r\n            $.unblockUI();\r\n\r\n        },\r\n        complete: function (response, textStatus) {\r\n            //alert(\"complete : \" + response + \"  text status : \" + textStatus);\r\n            $.unblockUI();\r\n            if (textStatus == \"success\" && response.status == 201) {\r\n                var str = response.getResponseHeader('Location');\r\n                var tgtTicket = str.substr(str.lastIndexOf('/') + 1);\r\n                //generateST(tgtTicket);\r\n                success({\r\n                    \"ticket\": tgtTicket\r\n                });\r\n                $rootScope.$apply(function () {\r\n\r\n                    $rootScope.setRoute(\"/home\");\r\n\r\n                });\r\n\r\n\r\n            } else {\r\n                success({\r\n                    \"error\": \"Oops! Cannot log you in. Please check your login details.\"\r\n                });\r\n            }\r\n        }\r\n\r\n    });*/\r\n\r\n\r\n    //Banner Authentication with LDAP - middlware auth\r\n\r\n    var url = $rootScope.middlewareServerUrl + \"/bannermobile2/services/authenticate/login\";\r\n    var data = {};\r\n    if (window.device) {\r\n        data = \"username=\" + uname + \"&password=\" + password;\r\n    } else {\r\n        url = \"/websimulator/json?url=\" + url;\r\n        data = {\r\n            method: \"POST\",\r\n            body: \"username=\" + uname + \"&password=\" + password\r\n        };\r\n    }\r\n    var authUrl = url;\r\n    var authData = data;\r\n    $rootScope.generateST = function (tgt, service, callback) {\r\n        //Bypassing the ST as there is no service ticket required here..\r\n        callback(tgt);\r\n    };\r\n\r\n    $rootScope.postAPI = function (endpoint, postdata, callback) {\r\n        $.blockUI();\r\n        $rootScope.generateST($rootScope.ticket, endpoint, function (st) {\r\n            var serviceurl = endpoint + \"?ticket=\" + st;\r\n            var url = \"\";\r\n            var proxyMethod = \"POST\";\r\n            var proxyData = postdata;\r\n            if (window.device) {\r\n                url = serviceurl;\r\n            } else {\r\n                url = \"/websimulator/json?url=\" + serviceurl;\r\n                proxyMethod = \"POST\";\r\n                proxyData = {\r\n                    method: \"POST\",\r\n                    body: postdata\r\n                }\r\n            }\r\n            $http({\r\n                method: proxyMethod,\r\n                url: url,\r\n                data: proxyData\r\n            }).\r\n            success(function (data, status, headers, config) {\r\n                $.unblockUI();\r\n                callback(data, status, headers, config);\r\n            }).\r\n            error(function (data, status, headers, config) {\r\n                $.unblockUI();\r\n                //alert(\"Error in service call : \" + data + \" Status : \" + status);\r\n                if (status == 403) { //Ticket expired.. need to relogin\r\n                    $http.post(authUrl, authData).success(function (data, status, headers, config) {\r\n                        authSuccess(data);\r\n                        $rootScope.getAPI(endpoint, callback);\r\n                    }).error(function (data, status, headers, config) {\r\n                        authError(data);\r\n\r\n                    });\r\n                }\r\n\r\n            });\r\n\r\n        });\r\n\r\n    };\r\n\r\n    $rootScope.getAPI = function (endpoint, callback) {\r\n        $.blockUI();\r\n        $rootScope.generateST($rootScope.ticket, endpoint, function (st) {\r\n            var serviceurl = endpoint + \"?ticket=\" + st;\r\n            var url = \"\";\r\n            var proxyMethod = \"GET\";\r\n            var proxyData = {};\r\n            if (window.device) {\r\n                url = serviceurl;\r\n            } else {\r\n                url = \"/websimulator/json?url=\" + encodeURIComponent(serviceurl);\r\n                proxyMethod = \"POST\";\r\n                proxyData = {\r\n                    method: \"GET\"\r\n                }\r\n            }\r\n            $http({\r\n                method: proxyMethod,\r\n                url: url,\r\n                data: proxyData\r\n            }).\r\n            success(function (data, status, headers, config) {\r\n                $.unblockUI();\r\n                callback(data, status, headers, config);\r\n            }).\r\n            error(function (data, status, headers, config) {\r\n                $.unblockUI();\r\n                //alert(\"Error in service call : \" + data + \" Status : \" + status);\r\n                if (status == 403) { //Ticket expired.. need to relogin\r\n                    $http.post(authUrl, authData).success(function (data, status, headers, config) {\r\n                        authSuccess(data);\r\n                        $rootScope.getAPI(endpoint, callback);\r\n                    }).error(function (data, status, headers, config) {\r\n                        authError(data);\r\n\r\n                    });\r\n                }\r\n\r\n            });\r\n\r\n        });\r\n\r\n    };\r\n\r\n\r\n\r\n\r\n    $.blockUI({\r\n        message: '<div style=\"margin: 2px; vertical-align: middle; display: inline-block\"><i class=\"icon-cog icon-spin icon-4x\"><\/i><h3>Authenticating<\/h3><\/div>'\r\n    });\r\n\r\n    $http.post(url, data).success(function (data, status, headers, config) {\r\n      success(data);\r\n        $.unblockUI();\r\n    }).error(function (data, status, headers, config) {\r\n        error(data);\r\n        $.unblockUI();\r\n    });\r\n\r\n}",
  "forgotPasswordUrl": "http://www.wcsu.edu/password",
  "reportissueEmail": "webmaster@wcsu.edu",
  "iconWidth": 70,
  "pushconfig": {
    "ApplicationId": "ZfCJf0U87PceunV66HmqduaUYEBJQvppeOofiQxP",
    "RestAPIKey": "feGWcWcpiRN9fmMmIqSmh4F8oYpQ2wxpB6NAHBs7",
    "ClientKey": "adENMh1tiuz5f7JUuxy6sW6FF0DnX3T8JkmtMmkx"
  },
  "apps": 
  [
    {
      "id": 16628,
      "name": "Directory",
      "displayname": "Directory",
      "logo": "WCSU/Directory.png",
      "logourl": "WCSU/Directory.png",
      "description": "Faculty/Staff Phone and Email",
      "appFeatureType": "Public",
      "roles": "public",
      "showInDock": false,
      "showInHome": true,
      "networkrequired": true,
      "analytics": false,
      "pages": 
      [
        {
          "pageid": "DirectoryDetails",
          "pageTemplate": "<div><\/div>",
          "datatemplate": "<style>\r\n    #branding {\r\n        display: none;\r\n    }\r\n<\/style>\r\n<div style=\"padding:10px;\">\r\n    <div class=\"row\" style=\"color: rgb(0, 0, 0); margin: 0px;\">\r\n        <div class=\"col-xs-5\" style=\"text-align: left; margin-top: auto; margin-right: auto; margin-bottom: auto;\">\r\n            <span class=\"fa fa-user fa-5x\" style=\"color:#fff;\"><\/span>\r\n        <\/div>\r\n        <div class=\"col-xs-7\">\r\n            <h4 style=\"margin-top:25%;color:#fff;text-shadow:0 0 2px #000;font-weight:bold;\">{{DirectoryDetails.firstNAME}} {{DirectoryDetails.lastNAME}}<\/span><\/h4>\r\n        <\/div>\r\n    <\/div>\r\n<\/div>\r\n<div>\r\n    <div class=\"panel panel-primary\" style=\"border-color:#000\">\r\n        <div class=\"panel-heading\" style=\"background: #035088; border-color: rgb(0, 0, 0);border-radius:0px;\">Title: {{DirectoryDetails.title}}\r\n        <\/div>\r\n        <div class=\"panel-body\">\r\n            <div class=\"list-group\">\r\n                <a class=\"list-group-item\" href=\"mailto:{{DirectoryDetails.email}}\">\r\n                    <h4 class=\"list-group-item-heading small\"><strong>Email:<\/strong> {{DirectoryDetails.email}}\r\n                    <i class=\"pull-right fa fa-chevron-right\"><\/i><\/h4>\r\n                <\/a>\r\n                <a class=\"list-group-item\" href=\"tel:{{DirectoryDetails.officePHONE}}\">\r\n                    <h4 class=\"list-group-item-heading small\"><strong>Phone:<\/strong> {{DirectoryDetails.officePHONE}}\r\n                    <i class=\"pull-right fa fa-chevron-right\"><\/i><\/h4>\r\n                <\/a>\r\n                <div class=\"list-group-item\">\r\n                    <h4 class=\"list-group-item-heading small\"><strong>Department:<\/strong> {{DirectoryDetails.department}}\r\n                    <\/h4>\r\n                <\/div>\r\n\r\n\r\n                <div class=\"list-group-item\">\r\n                    <h4 class=\"list-group-item-heading small\"><strong>Building:<\/strong> {{DirectoryDetails.building}}\r\n                    <\/h4>\r\n                <\/div>\r\n\r\n            <\/div>\r\n        <\/div>\r\n    <\/div>\r\n    <div style=\"background:none;border:none;\" class=\"well\"><a style=\"text-align: center;\" ng-click=\"addContacts();\" class=\"btn btn-primary btn-block\"><i class=\"fa fa-plus-circle\"><\/i> Add to Contacts<\/a><\/div>\r\n<\/div>",
          "pageprocessor": "function pageprocessorDirectoryDetails(pagedef, $scope, $routeParams, $compile, $http, $rootScope, $sce, $window, $location) {\r\n    $scope.DirectoryDetails = $rootScope.DirectoryResult[$routeParams.index];\r\n    var template = pagedef.datatemplate;\r\n    var data1 = $compile($(template))($scope);\r\n    $(\"#appContent\")\r\n        .append(data1);\r\n\r\n    $scope.addContacts = function() {\r\n        var dirContact = navigator.contacts.create();\r\n        var details = $scope.DirectoryDetails;\r\n        if (window.device.platform == \"Android\") {\r\n            dirContact.displayName = details.DisplayName;\r\n            var phoneNo = details.Telephone;\r\n            if (phoneNo) {\r\n                var phoneNumbers = [1];\r\n                phoneNumbers[0] = new ContactField('work', phoneNo, true); // preferred number  \r\n                dirContact.phoneNumbers = phoneNumbers;\r\n            }\r\n\r\n            var personEmail = details.Email;\r\n\r\n            if (personEmail) {\r\n                var emails = [1];\r\n                emails[0] = new ContactField('emails', personEmail, false);\r\n                dirContact.emails = emails;\r\n            }\r\n\r\n            ///for ios displayName is not supported insted of displayName we can use name object\r\n            var name = new ContactName();\r\n\r\n            if (details.FirstNAME == \"n/a\") {\r\n                name.givenName = \"\";\r\n            } else {\r\n                name.givenName = details.FirstName;\r\n            }\r\n\r\n            if (details.LastNAME == \"n/a\") {\r\n                name.familyName = \"\";\r\n            } else {\r\n                name.familyName = details.LastName;\r\n            }\r\n\r\n            dirContact.name = name;\r\n\r\n            dirContact.save(preLoginSaveContacts, preLoginSaveError);\r\n        }\r\n\r\n\r\n        if (window.device.platform == \"iOS\") {\r\n\r\n            var phoneNumbers = [2];\r\n            // phoneNumbers[0] = new ContactField('mobile', $(\"#phone\").text(), true); // preferred number\r\n            phoneNumbers[0] = new ContactField('work', details.officePHONE, true); // Work/Dept. number\r\n            dirContact.phoneNumbers = phoneNumbers;\r\n\r\n            var emails = [1];\r\n            emails[0] = new ContactField('emails', details.emailADDR, false);\r\n            dirContact.emails = emails;\r\n\r\n            ///for ios displayName is not supported insted of displayName we can use name object\r\n            var name = new ContactName();\r\n            if (details.FirstNAME == \"n/a\") {\r\n                name.givenName = \"\";\r\n            } else {\r\n                name.givenName = details.FirstNAME;\r\n            }\r\n\r\n            if (details.LastNAME == \"n/a\") {\r\n                name.familyName = \"\";\r\n            } else {\r\n                name.familyName = details.LastNAME;\r\n            }\r\n\r\n            dirContact.name = name;\r\n\r\n            dirContact.save(preLoginSaveContacts, preLoginSaveError);\r\n        }\r\n\r\n    }\r\n\r\n    function preLoginSaveContacts(contact) {\r\n        navigator.notification.alert(\"Contact Saved Successfully\");\r\n    }\r\n\r\n    function preLoginSaveError(contactError) {\r\n        if(contactError.code==20){navigator.notification.alert(\"Permission denied\");}\r\nelse{\r\nnavigator.notification.alert(\"Contact already saved\");\r\n}\r\n    }\r\n\r\n}"
        },
        {
          "pageid": "Directory",
          "pageTemplate": "<div><\/div>",
          "searchfields": "lastNAME,firstNAME,title,department",
          "url": "https://webapp.wcsu.edu/directory/WCSUdirectory.xml",
          "pageprocessor": "function pageprocessorDirectory(pagedef, $scope, $routeParams, $compile, $http, $rootScope, $sce, $window, $location) {\r\n    $scope.resultfound = true;\r\n  //  $rootScope.DirectoryResult = null;\r\n\r\n    var dv = '<div class=\"panel-heading\" style=\"background: #035088; border-color: rgb(0, 0, 0);\">' + '<form id=\"srch\" class=\"form-horizontal\">' + '<div class=\"input-group\">' + '<input id=\"Directorytxt\" type=\"text\" ng-model=\"Directoryval\" class=\"form-control\" />' + '<span class=\"input-group-btn\">' + '<button  id=\"srchbtn\" ng-click=\"search()\" class=\"btn btn-primary\" type=\"button\" style=\"background:#000\"><span class=\"fa fa-search\"><\/span>' + '<\/button>' + '<\/span>' + '<\/div>' + '<\/form>' + '<div class=\"helptext\" style=\"padding-top: 6px;color:#fff;\">Search by Last Name, First Name or Department<\/div>' + '<\/div>';\r\n    $(\".app-content\").prepend($compile(dv)($scope));\r\n    var data1 = $compile($(pagedef.datatemplate))($scope);\r\n    $(\"#appContent\").append(data1);\r\n\r\n\r\n    $('#srch').on('submit', function(event) {\r\n        event.preventDefault();\r\n        $scope.search();\r\n        $scope.$digest();\r\n        $(\"#srchbtn\").focus();\r\n        return false;\r\n    });\r\n\r\n    $scope.fetched = false;\r\n    $scope.filterresult = function() {\r\n        var searchTxt = $(\"#Directorytxt\").val();\r\n        $rootScope.Directoryval = searchTxt;\r\n        var results = [];\r\n        var patt = new RegExp(searchTxt, \"i\");\r\n        var filterParams = pagedef.searchfields.split(\",\");\r\n        $.each($scope.DirectoryList.WCSU_DIRECTORY, function(index, val) {\r\n            var found = false;\r\n            for (var i = 0; i < filterParams.length; i++) {\r\n                if (val[\"\" + filterParams[i] + \"\"] != undefined && val[\"\" + filterParams[i] + \"\"].match(patt)) {\r\n                    found = true;\r\n                    break;\r\n                }\r\n            }\r\n            if (found) {\r\n                results.push(val);\r\n            }\r\n        });\r\n\r\n       /* results.sort(function(a, b) {\r\n            if (a.firstNAME < b.firstNAME)\r\n                return -1;\r\n            if (a.firstNAME > b.firstNAME)\r\n                return 1;\r\n            return 0;\r\n        }); */\r\n\r\n\r\n\r\n        $rootScope.DirectoryResult = results;\r\n        if (results.length > 0) {\r\n            $scope.resultfound = true;\r\n            $.unblockUI();\r\n        } else {\r\n            $scope.resultfound = false;\r\n            $.unblockUI();\r\n        }\r\n\r\n    };\r\n    $scope.search = function() {\r\n        $.blockUI();\r\n        if ($scope.fetched == false) {\r\n            var url = pagedef.url + \"?m=\" + Math.random();\r\n            if (window.device) {} else {\r\n                url = \"/websimulator/xml?url=\" + pagedef.url + \"?m=\" + Math.random()\r\n\r\n            }\r\n            var xhr = $.ajax({\r\n                url: url,\r\n                dataType: \"xml\",\r\n                async: true,\r\n                data: {},\r\n                success: function(resp) {\r\n                    try {\r\n                        var results = $.xml2json(resp);\r\n\r\n                        $scope.fetched = true;\r\n                        $scope.DirectoryList = results;\r\n                        $scope.filterresult();\r\n                        $scope.$apply();\r\n                        $.unblockUI();\r\n                    } catch (E) {\r\n                        //alert(\"Exception : \" + E);\r\n                    }\r\n                },\r\n                error: function(e) {\r\n                    // alert(\"Error : \" + e);\r\n                    $.unblockUI();\r\n                    apprise(\"Error occured. Please try again later.\", {\r\n                        \"verify\": false,\r\n                        \"textYes\": \"Ok\"\r\n                    }, function(r) {\r\n                        $window.history.back();\r\n                    });\r\n                }\r\n            });\r\n        } else {\r\n            $scope.filterresult();\r\n        }\r\n    }\r\n    $scope.search();}",
          "datatemplate": "<style>.app-body{background: #fff !important;}<\/style>\r\n<div style=\"margin: 10px;\">\r\n    <div class=\"media\" ng-repeat=\"user in DirectoryResult\" style=\"border-bottom: 1px solid #e3e3e3\">\r\n        <a href=\"#app/Directory/DirectoryDetails?index={{$index}}\" class=\"pull-left\" style=\"text-decoration:none; color: #000\">\r\n            \r\n            <div class=\"media-object\" style=\"width:50px;height:50px;background:#537173;text-align:center;line-height:50px;font-weight:bold;font-size:20px;border-radius:50%;color:#fff;\">{{user.firstNAME.substring(0,1)}}{{user.lastNAME.substring(0,1)}}\r\n            <\/div>\r\n            \r\n        <\/a>\r\n        <div class=\"media-body\">\r\n            <a href=\"#app/Directory/DirectoryDetails?index={{$index}}\" style=\"text-decoration:none; color: #000\">\r\n            <h5 class=\"media-heading\"><span ng-hide=\"user.firstNAME=='' || user.firstNAME==null\">{{user.firstNAME}}<\/span> <span ng-hide=\"user.lastNAME=='' || user.lastNAME==null\"> {{user.lastNAME}} <\/span><\/h5>\r\n            <p>{{user.title}} <\/p>\r\n            <span class=\"fa fa-chevron-right pull-right\"><\/span>\r\n            <\/a>\r\n        \r\n        <div ng-show=\"user.officePHONE != null && user.officePHONE != ''\"><a href=\"tel:{{user.officePHONE}}\"><span class=\"fa fa-phone\">&nbsp;&nbsp;{{user.officePHONE}}<\/span><\/a>\r\n        <\/div><br>\r\n        <div ng-show=\"user.email != null && user.email != ''\"><a href=\"mailto:{{user.email}}\"><span class=\"fa fa-envelope\">&nbsp;&nbsp;{{user.email}}<\/span><\/a>\r\n        <\/div>\r\n        <\/div>\r\n        <br>\r\n        <\/div>\r\n    \r\n    <div class=\"alert alert-info\" style=\"margin:20%;\" ng-hide=\"resultfound\">No matches found<\/div>\r\n<\/div>"
        }
      ]
    },
    {
      "id": 10576,
      "name": "News",
      "displayname": "News",
      "logo": "WCSU/News.png",
      "logourl": "WCSU/News.png",
      "description": "Campus News Feeds test",
      "appFeatureType": "Public",
      "roles": "public",
      "showInDock": false,
      "showInHome": true,
      "networkrequired": true,
      "analytics": true,
      "pages": 
      [
        {
          "pageid": "News",
          "pageTemplate": "<div><\/div>",
          "url": "http://www.wcsu.edu/newsevents/rss/news.xml",
          "datatemplate": "<style>\r\n    #branding {\r\n        display: none;\r\n    }\r\n<\/style>\r\n<div class=\"list-group\" ><a href=\"#app/News/NewsDetails?index={{$index}}\" class=\"list-group-item\" ng-repeat=\"feed in feeds | filter:filterText\"><h4 style=\"color:#002D56 !important;\">{{feed.title}}<\/h4><p class=\"text-left\" style=\"color:#000;\">{{feed.contentSnippet}}<\/p><\/a><\/div>",
          "pageprocessor": "function pageprocessorNews(pagedef, $scope, $routeParams, $compile, $http, $rootScope, $sce, $window, $location) {\r\n\r\n    //var url = pagedef.url + \"?math=\" + Math.random();\r\n    $.blockUI();\r\n    var feed = new google.feeds.Feed(pagedef.url);\r\n    feed.setNumEntries(-1);\r\n    feed.setResultFormat(google.feeds.Feed.JSON);\r\n    feed.load(function(result) {\r\n        if (!result.error) {\r\n\r\n            $scope.feeds = result.feed.entries;\r\n            $rootScope.feeds = result.feed.entries;\r\n            var data = '<div class=\"row-fluid\"><\/div>';\r\n            data = $(data)\r\n                .append($(pagedef.datatemplate));\r\n            var data1 = $compile($(data))($scope);\r\n            $('#appContent')\r\n                .append(data1);\r\n            $scope.$apply();\r\n            $.unblockUI();\r\n        }\r\n    });\r\n    $scope.convertToDate = function(stringDate) {\r\n        var dateOut = new Date(stringDate);\r\n        dateOut.setDate(dateOut.getDate());\r\n        return dateOut;\r\n    };\r\n}"
        },
        {
          "pageid": "NewsDetails",
          "pageTemplate": "<div><\/div>",
          "pageprocessor": "function pageprocessorNewsDetails(pagedef, $scope, $routeParams, $compile, $http, $rootScope, $sce, $window, $location) {\r\n    $scope.feed = $rootScope.feeds[$routeParams.index];\r\n    $scope.openurl = function () {\r\n        window.open($scope.feed.link, \"_blank\", \"location=yes,enableViewportScale=yes\");\r\n    };\r\n    var template = pagedef.datatemplate;\r\n    $scope.trusthtml = function (data) {\r\n        return $sce.trustAsHtml(data);\r\n    }\r\n    var data1 = $compile($(template))($scope);\r\n    $(\"#appContent\").append(data1);\r\n\r\nsetTimeout(function() {\r\n        $(\"#content a\").on(\"click\", function(eve) {\r\n\r\n            var link = $(this).attr('href');\r\n            if (link.indexOf(\"mailto:\") > -1 || link.indexOf(\"tel:\") > -1) {} else {\r\n                eve.preventDefault();\r\n\r\n                window.open(link, \"_blank\", \"location=yes,enableViewportScale=yes\");\r\n            }\r\n        });\r\n    }, 1000);\r\n\r\n$scope.convertToDate = function (stringDate){\r\n  var dateOut = new Date(stringDate);\r\n  dateOut.setDate(dateOut.getDate());\r\n  return dateOut;\r\n};\r\n\r\n}",
          "datatemplate": "<style>\r\n.app{background:#fff !important;\r\n\r\n}\r\n\r\n    #branding {\r\n        display: none;\r\n    }\r\n\r\n#content a{\r\ncolor:#256fca;\r\n}\r\n#content img {\r\nwidth:98% !important;\r\nheight:auto !important;\r\n]\r\n<\/style>\r\n<div class=\"jumbotron\" style=\"background:#fff;\">\r\n    <h4 class=\"page-header\" style=\"color:#002D56; border-color:#000;font-weight:bold;\">{{feed.title}}<\/h4>\r\n    <p style=\"color:#000\" id=\"content\" class=\"small\" ng-bind-html=\"trusthtml(feed.content)\"><\/p>\r\n    \r\n\r\n<a class=\"btn btn-primary btn-block\" ng-click=\"openurl();\" >View Web Site<\/a>\r\n<\/div>"
        }
      ]
    },
    {
      "id": 10573,
      "name": "Events51",
      "displayname": "Events",
      "logo": "WCSU/Events51.png",
      "logourl": "WCSU/Events51.png",
      "description": "Events",
      "appFeatureType": "Public",
      "roles": null,
      "showInDock": false,
      "showInHome": true,
      "networkrequired": true,
      "analytics": true,
      "pages": 
      [
        {
          "pageid": "Events51Details",
          "pageTemplate": "<div class=\"row-fluid\"><\/div>",
          "datatemplate": "<style>\r\n    #branding {\r\n        display: none;\r\n    }\r\n<\/style>\r\n<div class=\"jumbotron\" style=\"background:transparent;color:#fff;\">\r\n    <h4 class=\"page-header\">{{title}}<\/h4>\r\n    <p class=\"small\">{{description}}<\/p>\r\n    <p style=\"font-size:0.6em;\">Event starts at: {{displaydate}}<\/p>\r\n    <a class=\"btn btn-primary btn-block\" ng-click=\"openurl();\" ng-show=\"link != null && link != ''\">View Web Site<\/a><\/div>",
          "pageprocessor": "function pageprocessorEvents51Details(pagedef, $scope, $routeParams, $compile, $http, $rootScope, $sce, $window, $location) {\r\n    $scope.title = $rootScope.Eventsdata[$routeParams.index - 1].title;\r\n    $scope.displaydate = $rootScope.Eventsdata[$routeParams.index - 1].displaydate;\r\n    $scope.description = $rootScope.Eventsdata[$routeParams.index - 1].description;\r\n    $scope.link = $rootScope.Eventsdata[$routeParams.index - 1].link;\r\n    $scope.openurl = function() {\r\n        window.open($scope.link, \"_blank\", \"location=yes,hidden=no,enableViewportScale=yes,toolbarposition=top,closebuttoncaption=Back\");\r\n    };\r\n    var data = pagedef.pageTemplate;\r\n    data = $(data).append($(pagedef.datatemplate));\r\n    var data1 = $compile($(data))($scope);\r\n    $(\"#appContent\").append(data1);\r\n}"
        },
        {
          "pageid": "Events51",
          "pageTemplate": "<div id=\"EventsListData\"><\/div>",
          "pageprocessor": "function pageprocessorEvents51(pagedef, $scope, $routeParams, $compile, $http, $rootScope, $sce, $window, $location) {\r\n   $.blockUI();\r\n    var url = pagedef.url;\r\n    if (window.device) {} else {\r\n        url = \"/websimulator/xml?url=\" + pagedef.url;\r\n    }\r\n\r\n    var xhr = $.ajax({\r\n        url: url,\r\n        dataType: \"xml\",\r\n        async: false,\r\n        data: {},\r\n        success: function(resp) {\r\n            var results = $.xml2json(resp);\r\n\r\n            var data = [];\r\n            var index = 0;\r\n            $.each(results.channel.item, function(key, val) {\r\n\r\n                index = index + 1;\r\n              \r\n\r\n                data.push({\r\n                    \"link\": val.link,\r\n                    \"displaydate\": val.pubDate,\r\n                    \"date\": new Date(val.pubDate).getTime().toString(),\r\n                    \"title\": val.title,\r\n                    \"description\": val.description,\r\n                    \"index\": index\r\n                });\r\n            });\r\n            $rootScope.Eventsdata = data;\r\n            $(\"#appContent\")\r\n                .append($(pagedef.pageTemplate));\r\n            $(\"#EventsListData\")\r\n                .eventCalendar({\r\n                    jsonData: data,\r\neventsLimit: 10,\r\n                    showDescription: true,\r\n                    dataTemplate: pagedef.datatemplate\r\n                });\r\n            $.unblockUI();\r\n        },\r\n        error: function(e) {\r\n            alert(\"Error : \" + e);\r\n            $.unblockUI();\r\n            apprise(\"Error occured. Please try again later.\", {\r\n                \"verify\": true,\r\n                \"textYes\": \"Ok\"\r\n            }, function(r) {\r\n                $window.history.back();\r\n            });\r\n        }\r\n    });\r\n}",
          "datatemplate": "<li><a class=\"list-group-item\" href=\"#app/Events51/Events51Details?index={{index}}\"><h4>{{title}}<\/h4><p>Event starts at: {{displaydate}}<\/p><\/a>\r\n<\/li>",
          "url": "http://www.wcsu.edu/newsevents/rss/full-news.xml"
        }
      ]
    },
    {
      "id": 10582,
      "name": "Emergency",
      "displayname": "Emergency",
      "logo": "WCSU/Emergency.png",
      "logourl": "WCSU/Emergency.png",
      "description": "Emergency Contact",
      "appFeatureType": "Public",
      "roles": "public",
      "showInDock": false,
      "showInHome": true,
      "networkrequired": true,
      "analytics": true,
      "pages": 
      [
        {
          "pageid": "Emergency",
          "pageTemplate": "<div class=\"well\"  style=\"background:transparent;padding:10px;border:none;\">     <div class=\"list-group\">         <a class=\"list-group-item active panel-title\" style=\"background:#002D56;color:#fff;font-weight:bold\">Phone Numbers<\/a>         <a href=\"tel:{{contact.number}}\" class=\"list-group-item\" ng-repeat=\"contact in contacts.Contacts \">             <b>{{contact.name}} <\/b>             <i class=\"fa fa-chevron-circle-right pull-right fa-2x\"><\/i>             <br/>             <i class=\"fa fa-phone\"><\/i>&nbsp;&nbsp;{{contact.number}}         <\/a>     <\/div> <\/div>",
          "pageprocessor": "function pageprocessorEmergency(pagedef, $scope, $routeParams, $compile, $http, $rootScope, $sce, $window, $location) {\r\n    $scope.contacts = $.parseJSON(pagedef.contactdetails);\r\n    var data1 = $compile($(pagedef.pageTemplate))($scope);\r\n    $(\"#appContent\").append(data1);\r\n    $scope.$apply();\r\n}",
          "contactdetails": "{\r\n    \"Contacts\": [\r\n        {\r\n            \"name\": \"On Campus Emergencies\",\r\n            \"number\": \"911\"\r\n        },\r\n        {\r\n            \"name\": \"University Police\",\r\n            \"number\": \"(203) 837-9300\"\r\n        }\r\n    ]\r\n}"
        }
      ]
    },
    {
      "id": 10661,
      "name": "Maps76",
      "displayname": "Maps ",
      "logo": "WCSU/Maps76.png",
      "logourl": "WCSU/Maps76.png",
      "description": "Maps ",
      "appFeatureType": "Public",
      "roles": null,
      "showInDock": false,
      "showInHome": true,
      "networkrequired": true,
      "analytics": true,
      "pages": 
      [
        {
          "pageid": "Maps76",
          "pageTemplate": "<div><\/div>",
          "url": "http://www.wcsu.edu/campustour/",
          "pageprocessor": "function pageprocessorMaps76(pagedef, $scope, $routeParams, $compile, $http, $rootScope, $sce, $window, $location) {\r\n\r\nif (window.device) {\r\n        $.blockUI();\r\n    }\r\n    var iabRef = window.open(pagedef.url, \"_blank\", \"location=yes,hidden=yes,enableViewportScale=yes,clearcache=yes\");\r\n    var hideBlockUi = function() {\r\n        $.unblockUI();\r\n        iabRef.show();\r\n    };\r\n    var iabClose = function(data) {\r\n        $.unblockUI();\r\n        window.location.href = \"index.html#home\";\r\n    };\r\n    iabRef.addEventListener(\"exit\", iabClose);\r\n    var loadStop = function(data) {\r\n        hideBlockUi();\r\n    };\r\n    iabRef.addEventListener(\"loadstop\", loadStop);\r\n}"
        }
      ]
    },
    {
      "id": 10600,
      "name": "Photos",
      "displayname": "Photos",
      "logo": "WCSU/Photos.png",
      "logourl": "WCSU/Photos.png",
      "description": "Campus Photos",
      "appFeatureType": "Public",
      "roles": "public",
      "showInDock": false,
      "showInHome": true,
      "networkrequired": true,
      "analytics": true,
      "pages": 
      [
        {
          "pageid": "PhotosDetails",
          "pageTemplate": "<div><\/div>",
          "pageprocessor": "function pageprocessorPhotosDetails(pagedef, $scope, $routeParams, $compile, $http, $rootScope, $sce, $window, $location) {\r\n    var photosurl = \"https://api.flickr.com/services/rest/?&method=flickr.photosets.getPhotos&api_key=\" + $routeParams.apikey + \"&photoset_id=\" + $routeParams.photosetid + \"&media=photos&format=json&jsoncallback=JSON_CALLBACK\";\r\n    $http.jsonp(photosurl).success(function(data) {\r\n        $scope.photos = data.photoset.photo;\r\n        $rootScope.photos = data.photoset.photo;\r\n        var data1 = $compile($(pagedef.datatemplate))($scope);\r\n        $(\"#appContent\").append(data1);\r\n        $.unblockUI();\r\n    }).error(function(data, status, headers, config) {\r\n        $.unblockUI();\r\n        apprise(\"Error occured. Please try again later.\", {\r\n            \"verify\": false,\r\n            \"textYes\": \"Ok\"\r\n        }, function(r) {\r\n            $window.history.back();\r\n        });\r\n    });\r\n}\r\n",
          "datatemplate": "<div class=\"col-xs-4 col-sm-1 col-md-6\" ng-repeat=\"photo in photos\">\r\n  <a href=\"#app/Photos/PhotosPage3?index={{$index}}\" class=\"thumbnail\">\r\n        <img src=\"http://farm{{photo.farm}}.static.flickr.com/{{photo.server}}/{{photo.id}}_{{photo.secret}}_s.jpg\" alt=\"{{photo.title}}\" />\r\n    <\/a>\r\n<\/div>"
        },
        {
          "pageid": "PhotosPage3",
          "pageTemplate": "<div><\/div>",
          "pageprocessor": "function pageprocessorPhotosPage3(pagedef, $scope, $routeParams, $compile, $http, $rootScope, $sce, $window, $location) {\r\n    $scope.curindex = $routeParams.index;\r\n    var data1 = $compile($(pagedef.datatemplate))($scope);\r\n    $(\"#appContent\").append(data1);\r\n}",
          "endpoint": "",
          "datatemplate": "<div id=\"carousel-example-generic\" class=\"carousel slide\" data-ride=\"carousel\" style=\"position:absolute;width:100%;height:100%;background:#000;\">\r\n    <!-- Indicators -->\r\n    <!--<ol class=\"carousel-indicators\">\r\n        <li data-target=\"#carousel-example-generic\" data-slide-to=\"0\" class=\"active\"><\/li>\r\n        <li data-target=\"#carousel-example-generic\" data-slide-to=\"1\"><\/li>\r\n        <li data-target=\"#carousel-example-generic\" data-slide-to=\"2\"><\/li>\r\n    <\/ol>-->\r\n\r\n    <!-- Wrapper for slides -->\r\n    <div class=\"carousel-inner\">\r\n        <div class=\"item\" ng-class=\"$index == curindex ? 'active' : '' \" ng-repeat=\"photo in photos\">\r\n            <img src=\"https://farm{{photo.farm}}.static.flickr.com/{{photo.server}}/{{photo.id}}_{{photo.secret}}_b.jpg\" alt=\"{{photo.title}}\" />\r\n        <\/div>\r\n    <\/div>\r\n\r\n    <!-- Controls -->\r\n    <a class=\"left carousel-control\" href=\"#carousel-example-generic\" role=\"button\" data-slide=\"prev\">\r\n        <span class=\"fa fa-chevron-left fa-2x\"><\/span>\r\n    <\/a>\r\n    <a class=\"right carousel-control\" href=\"#carousel-example-generic\" role=\"button\" data-slide=\"next\">\r\n        <span class=\"fa fa-chevron-right fa-2x\"><\/span>\r\n    <\/a>\r\n<\/div>"
        },
        {
          "pageid": "Photos",
          "pageTemplate": "<div><\/div>",
          "datatemplate": "<div class=\"media-list list-group\"><a href=\"#app/Photos/PhotosDetails?photosetid={{photo.id}}&albumname={{photo.title._content}}&apikey={{apikey}}\" class=\"media list-group-item\" ng-repeat=\"photo in photos\"><div class=\"pull-left\"><img class=\"media-object\"  src=\"http://farm{{photo.farm}}.static.flickr.com/{{photo.server}}/{{photo.primary}}_{{photo.secret}}_s.jpg\" ><\/img><\/div><div class=\"media-body\"><h6 class=\"media-heading\">{{photo.title._content}}<\/h6>      <p class=\"disabled\">Updated on {{photo.date_update+\"000\" | date:'MM/dd/yyyy' }}<\/p><p class=\"disabled\">{{photo.count_views}} views / {{photo.count_comments}} comments<\/p><\/div><\/a><\/div>",
          "pageprocessor": "function pageprocessorPhotos(pagedef, $scope, $routeParams, $compile, $http, $rootScope, $sce, $window, $location) { $.blockUI();var url = \"https://api.flickr.com/services/rest/?&method=flickr.photosets.getList&api_key=\" + pagedef.apikey + \"&user_id=\" + pagedef.userid + \"&format=json&jsoncallback=JSON_CALLBACK\";$scope.apikey=pagedef.apikey;$http.jsonp(url).success(function(data) {$scope.photos = data.photosets.photoset;var data1 = $compile($(pagedef.datatemplate))($scope);$(\"#appContent\").append(data1);$.unblockUI();}).error ( function(data, status, headers, config) {$.unblockUI();apprise(\"Error occured. Please try again later.\", {\"verify\":false, \"textYes\":\"Ok\"}, function(r) {$window.history.back();});});;}",
          "userid": "30856443@N04",
          "apikey": "107bee6a2410d698a01a2ac77f5ba3e0"
        }
      ]
    },
    {
      "id": 10579,
      "name": "Videos",
      "displayname": "Videos",
      "logo": "WCSU/Videos.png",
      "logourl": "WCSU/Videos.png",
      "description": "Campus Videos",
      "appFeatureType": "Public",
      "roles": "public",
      "showInDock": false,
      "showInHome": true,
      "networkrequired": true,
      "analytics": true,
      "pages": 
      [
        {
          "pageid": "Videos",
          "pageTemplate": "<div><\/div>",
          "pageprocessor": "function pageprocessorVideos(pagedef, $scope, $routeParams, $compile, $http, $rootScope, $sce, $window, $location) { \r\n\r\n $.blockUI();\r\n    $http.get(pagedef.url).success(function(data) {\r\n        console.log(JSON.stringify(data));\r\n        $scope.videos = data.items;\r\n        $rootScope.videos = data.items;\r\n        var data1 = $compile($(pagedef.datatemplate))($scope);\r\n        $(\"#appContent\").append(data1);\r\n        $.unblockUI();\r\n    }).error(function(data) {\r\n        $.unblockUI();\r\n    });\r\n}",
          "url": "https://www.googleapis.com/youtube/v3/search?videoEmbeddable=true&order=date&part=snippet&channelId=UCe2eR37Vb5QQxAA3gsoL-Qg&type=video&maxResults=50&key=AIzaSyAC5TPbRtJ_dZTWSVzyIQY_QzLLJANuR-o",
          "datatemplate": "<div class=\"media-list list-group\">\r\n    <a href=\"#app/Videos/VideosVideosDetails?index={{$index}}\" class=\"media list-group-item\" ng-repeat=\"video in videos\">\r\n        <div class=\"pull-left\"><img class=\"media-object\" src=\"{{video.snippet.thumbnails.default.url}}\"><\/img>\r\n        <\/div>\r\n        <div class=\"media-body\">\r\n            <h4 class=\"media-heading\" style=\"color:#002D56;\">{{video.snippet.title}}<\/h4>\r\n            <p class=\"disabled\">Published On {{video.snippet.publishedAt | date:'medium'}}<\/p>\r\n        <\/div>\r\n    <\/a>\r\n<\/div>"
        },
        {
          "pageid": "VideosVideosDetails",
          "pageTemplate": "<div><\/div>",
          "pageprocessor": "function pageprocessorVideosVideosDetails(pagedef, $scope, $routeParams, $compile, $http, $rootScope,$sce, $window, $location) { \r\n\r\nvar video = $rootScope.videos[$routeParams.index];\r\n    var videoID=video.id.videoId\r\n    \r\n  var url=\"https://www.googleapis.com/youtube/v3/videos?id=\"+videoID+\"&key=AIzaSyAC5TPbRtJ_dZTWSVzyIQY_QzLLJANuR-o&part=snippet,contentDetails,statistics,status\";\r\n  $http.get(url).success(function(data) {\r\n    \r\n     console.log(JSON.stringify(data));\r\n    $scope.title = data.items[0].snippet.localized.title;\r\n    \r\n    $scope.trustSrc = function() {\r\n        return $sce.trustAsResourceUrl(\"https://www.youtube.com/embed/\" + videoID);\r\n    };\r\n    $scope.description = data.items[0].snippet.localized.description;\r\n    \r\n    var data1 = $compile($(pagedef.datatemplate))($scope);\r\n    $(\"#appContent\").append(data1);\r\n    \r\n    }).error(function(data) {\r\n        $.unblockUI();\r\n    });\r\n    \r\n    $(\"#videoFrame a\").click(function(){\r\n        alert(\"a\");\r\n    });\r\n}",
          "datatemplate": "<style>\r\n    #branding {\r\n    \tdisplay: none;\r\n\t}\r\n<\/style>\r\n<div class=\"container\">\r\n    <h4 style=\"color:#fff;padding:10px;\">{{title}}<\/h4>\r\n    <div style=\"align:center\">\r\n        <iframe ng-src=\"{{trustSrc()}}\" frameborder=\"0\" allowfullscreen target=\"self\"><\/iframe>\r\n    <\/div>\r\n    <h5 style=\"color:#fff;padding:10px;\">{{description}}<\/h5>\r\n<\/div>"
        }
      ]
    },
    {
      "id": 10597,
      "name": "Radio",
      "displayname": "Radio",
      "logo": "WCSU/Radio.png",
      "logourl": "WCSU/Radio.png",
      "description": "Radio",
      "appFeatureType": "Public",
      "roles": null,
      "showInDock": false,
      "showInHome": true,
      "networkrequired": true,
      "analytics": true,
      "pages": 
      [
        {
          "pageid": "Radio",
          "pageTemplate": "<div><\/div>",
          "pageprocessor": "function pageprocessorRadio(pagedef, $scope, $routeParams, $compile, $http, $rootScope, $sce, $window, $location) {\r\n    if (window.device) {\r\n        $.blockUI();\r\n    }\r\n\r\n\r\n\r\n    if (window.device && window.device.platform == 'Android') {\r\n      \r\n        //var iabRef = window.open(pagedef.url, \"_system\", \"location=no,hidden=yes\");\r\n      window.open(pagedef.url, \"_system\");\r\n        $.unblockUI();\r\n        window.location.href = \"index.html#home\";\r\n\r\n    } else {\r\n      \r\n      window.open(pagedef.url, \"_blank\",\"location=no\");\r\n\r\n\r\n        //var iabRef = window.open(pagedef.url, \"_blank\", \"location=yes,hidden=yes,enableViewportScale=yes\");\r\n$.unblockUI();\r\n        window.location.href = \"index.html#home\";\r\n        \r\n    }\r\n    \r\n}",
          "url": "http://wxci.wcsu.edu/listen-live/"
        }
      ]
    },
    {
      "id": 10663,
      "name": "Athletics",
      "displayname": "Athletics",
      "logo": "WCSU/Athletics.png",
      "logourl": "WCSU/Athletics.png",
      "description": "Athletics",
      "appFeatureType": "Public",
      "roles": "public",
      "showInDock": false,
      "showInHome": true,
      "networkrequired": true,
      "analytics": true,
      "pages": 
      [
        {
          "pageid": "AthleticsDetails",
          "pageTemplate": "<div><\/div>",
          "pageprocessor": "function pageprocessorAthleticsDetails(pagedef, $scope, $routeParams, $compile, $http, $rootScope, $sce, $window, $location) {\r\n    var type = $routeParams.type;\r\n\r\n $scope.type = type;\r\n    if (type == \"news\") {\r\n        $scope.feed = $rootScope.newsfeeds[$routeParams.index];\r\n\r\n    \t//var iabRef=window.open($scope.feed.link, \"_blank\", \"location=no\");\r\n      \tvar template = pagedef.datatemplate;\r\n    \tvar data1 = $compile($(template))($scope);\r\n    \t$(\"#appContent\").append(data1);\r\n      \r\n    } else if (type == \"sch\") {\r\n        $scope.feed = $rootScope.schfeeds.channel.item[$routeParams.index];\r\n    \t//var iabRef=window.open($scope.feed.link, \"_blank\", \"location=no\");\r\n      \tvar template = pagedef.datatemplate;\r\n    \tvar data1 = $compile($(template))($scope);\r\n    \t$(\"#appContent\").append(data1);\r\n    } else if (type == \"sco\") {\r\n        $scope.feed = $rootScope.scofeeds[$routeParams.index];\r\n\r\n      \t//var iabRef=window.open($scope.feed.link, \"_blank\", \"location=no\");\r\n      \tvar template = pagedef.datatemplate;\r\n    \tvar data1 = $compile($(template))($scope);\r\n    \t$(\"#appContent\").append(data1);\r\n      \r\n    }\r\n    $scope.openurl = function () {\r\n        window.open($scope.feed.link, \"_blank\", \"location=no\");\r\n    };\r\n    /*var template = pagedef.datatemplate;\r\n    var data1 = $compile($(template))($scope);\r\n    $(\"#appContent\").append(data1);\r\n    */\r\n  \r\n    /*var iabClose = function(data) {\r\n        window.location.href = \"index.html#Athletics/AthleticsFeed\";\r\n    };\r\n    iabRef.addEventListener(\"exit\", iabClose);*/\r\n\r\n$scope.trusthtml = function(data) {\r\n        return $sce.trustAsHtml(data);\r\n    };\r\n\r\n$scope.convertToDate = function(stringDate) {\r\n        var dateOut = new Date(stringDate);\r\n        dateOut.setDate(dateOut.getDate());\r\n        return dateOut;\r\n    };\r\n}",
          "datatemplate": "<style>\r\n    .app {\r\n        background: #fff !important;\r\n        overflow-x: hidden;\r\n    }\r\n<\/style>\r\n<div ng-show=\"type == 'news'\">\r\n    <div class=\"jumbotron\" style=\"background:transparent; color:#fff;height:100%;margin-bottom:0\">\r\n        <h4 class=\"page-header\">{{feed.title}}<\/h4>\r\n        <!--<h4 style=\"text-align:center;\">{{feed.date}}<\/h4>-->\r\n\r\n        <p id=\"content\" class=\"small\" ng-bind-html=\"trusthtml(feed.content)\" style=\"color:#fff !important\"><\/p>\r\n\r\n\r\n        <p class=\"small\">Published on : {{feed.publishedDate}}<\/p><a class=\"btn btn-primary btn-block\" ng-click=\"openurl();\" style=\"background:#422980; border:none;\">View Full Article<\/a>\r\n    <\/div>\r\n<\/div>\r\n<div ng-show=\"type == 'sch'\">\r\n    <div class=\"jumbotron\" style=\"background:transparent;color:#fff;\">\r\n        <h4 class=\"page-header\">{{feed.title}}<\/h4>\r\n        <p class=\"small\">{{feed.description}}<\/p>\r\n        <span class=\"small\" ng-bind=\"convertToDate(feed.date) | date:'EEE, MMM dd, y h:mm a'\"><\/span>\r\n        <a class=\"btn btn-primary btn-block\" ng-click=\"openurl();\">View Web Site<\/a><\/div>\r\n<\/div>\r\n\r\n<div ng-show=\"type == 'sco'\">\r\n    <div class=\"jumbotron\" style=\"background:transparent;color:#fff;\">\r\n        <h4 class=\"page-header\">{{feed.title}}<\/h4>\r\n        <p class=\"small\">{{feed.description}}<\/p>\r\n        <!--<p class=\"small\">Published on : {{feed.date}}<\/p>-->\r\n        <span class=\"small\" ng-bind=\"convertToDate(feed.date) | date:'EEE, MMM dd, y h:mm a'\"><\/span>\r\n        <a class=\"btn btn-primary btn-block\" ng-click=\"openurl();\">View Web Site<\/a><\/div>\r\n<\/div>\r\n      "
        },
        {
          "pageid": "AthleticsFeed",
          "pageTemplate": "<div><\/div>",
          "pageprocessor": "function pageprocessorAthleticsFeed(pagedef, $scope, $routeParams, $compile, $http, $rootScope, $sce, $window, $location) {\r\n    $rootScope.schfeeds = null;\r\n    $rootScope.scofeeds = null;\r\n    $rootScope.newsfeeds = null;\r\n    $.blockUI();\r\n    var f = $rootScope.feedlist[$routeParams.index];\r\n    $scope.getimage = function(content) {\r\n\r\n        return $sce.trustAsHtml(content.split('\"')[1]);\r\n    }\r\n    $scope.trustUrl = function(url) {\r\n\r\n        return $sce.trustAsUrl(url);\r\n    }\r\n    $scope.trusthtml = function(data) {\r\n        return $sce.trustAsHtml(data);\r\n    };\r\n    $scope.loadnews = function() {\r\n        var feed = new google.feeds.Feed(f.newsurl);\r\n\r\n        feed.setNumEntries(-1);\r\n        feed.setResultFormat(google.feeds.Feed.JSON);\r\n        feed.load(function(result) {\r\n            if (result.error) {\r\n               // navigator.notification.alert(\"News could not be loaded at this time. Please try again later\");\r\n              $.unblockUI();\r\n            } else {\r\n                // console.log(result);\r\n                var entries = [];\r\n                $.each(result.feed.entries, function(i, val) {\r\n                    /*var image_url = val.content.split('\"');\r\n                    var image = encodeURIComponent(image_url[1]);\r\n                    val.imageurl = image_url[1].replace(\"&amp;\", \"&\");*/\r\n                    entries.push(val);\r\n                });\r\n                $scope.newsfeeds = entries;\r\n\r\n                $rootScope.newsfeeds = entries;\r\n                $scope.$apply();\r\n                $.unblockUI();\r\n            }\r\n        });\r\n\r\n\r\n\r\n    };\r\n\r\n    $scope.loadsch = function() {\r\n        \r\n        $.blockUI();\r\n        var url = f.schurl;\r\n\r\n        if (window.device) {} else {\r\n            url = \"/websimulator/xml?url=\" + f.schurl;\r\n        }\r\n\r\n\r\n        var xhr = $.ajax({\r\n            url: url,\r\n            dataType: \"xml\",\r\n            async: true,\r\n            data: {},\r\n            success: function(resp) {\r\n                var results = $.xml2json(resp);\r\n\r\n                $scope.schfeeds = results;\r\n                $rootScope.schfeeds = results;\r\n\r\n                $scope.$apply();\r\n                $.unblockUI();\r\n            },\r\n            error: function(e) {\r\n               // navigator.notification.alert(\"Schedule could not be loaded at this time. Please try again later\");\r\n                $.unblockUI();\r\n\r\n            }\r\n        });\r\n\r\n        \r\n    };\r\n\r\n\r\n    $scope.loadsco = function() {\r\n\r\n        /*$.blockUI();\r\n        var sportsName = f.name;\r\n        var proxyMethod = \"GET\";\r\n        var proxyData = {};\r\n        var urlScore = f.scourl;\r\n        if (window.device) {\r\n\r\n        } else {\r\n            urlScore = \"/websimulator/json?url=\" + encodeURIComponent(f.scourl);\r\n            proxyMethod = \"POST\";\r\n            proxyData = {\r\n                method: \"GET\"\r\n            }\r\n        }\r\n\r\n\r\n        var xhr = $.ajax({\r\n            url: urlScore,\r\n            async: true,\r\n            data: proxyData,\r\n            type: proxyMethod,\r\n            success: function(data) {\r\n                var scoreArray = [];\r\n                for (var i = 0; i < data.scores.length; i++) {\r\n                    if (data.scores[i].sport == \"Lady Demon \" + sportsName || data.scores[i].sport == \"Demon \" + sportsName) {\r\n                        scoreArray.push(data.scores[i]);\r\n                    }\r\n                }\r\n                $scope.scofeeds = scoreArray;\r\n                $rootScope.scofeeds = scoreArray;\r\n                $scope.$apply();\r\n                //$scope.$digest();\r\n                $.unblockUI();\r\n            },\r\n            error: function(e) {\r\n               // navigator.notification.alert(\"Scores could not be loaded at this time. Please try again later\");\r\n                $.unblockUI();\r\n\r\n            }\r\n        });*/\r\n        \r\n        \r\n        \r\n        $.blockUI();\r\n        var url = f.scourl;\r\n\r\n        if (window.device) {} else {\r\n            url = \"/websimulator/xml?url=\" + f.scourl;\r\n        }\r\n\r\n\r\n        var xhr = $.ajax({\r\n            url: url,\r\n            dataType: \"xml\",\r\n            async: true,\r\n            data: {},\r\n            success: function(resp) {\r\n                var results = $.xml2json(resp);\r\n              \r\n                $scope.scofeeds = results.channel.item;\r\n                $rootScope.scofeeds = results.channel.item;\r\n                $scope.$apply();\r\n                $.unblockUI();\r\n            },\r\n            error: function(e) {\r\n               // navigator.notification.alert(\"Schedule could not be loaded at this time. Please try again later\");\r\n                $.unblockUI();\r\n\r\n            }\r\n        });\r\n\r\n        \r\n\r\n    };\r\n    var data = \"<div><\/div>\";\r\n    data = $(data)\r\n        .append($(pagedef.datatemplate));\r\n    var data1 = $compile($(data))($scope);\r\n    $(\"#appContent\")\r\n        .append(data1);\r\n    $scope.loadnews();\r\n    $scope.loadsch();\r\n    $scope.loadsco();\r\n    $scope.convertToDate = function(stringDate) {\r\n        var dateOut = new Date(stringDate);\r\n        dateOut.setDate(dateOut.getDate() + 1);\r\n        return dateOut;\r\n    };\r\n\r\n}",
          "datatemplate": "<style>\r\n    .app {\r\n        background: #fff !important;\r\n        overflow-x: hidden !important;\r\n        max-width: 100%;\r\n    }\r\n    \r\n    #branding {\r\n        display: none;\r\n    }\r\n    \r\n    .btn.active {\r\n        background-color: #002D56 !important;\r\n        border-color: #002D56 !important;\r\n        /*box-shadow: 0 5px 5px #000 !important;*/\r\n        \r\n        color: #fff;\r\n    }\r\n<\/style>\r\n<div class=\"btn-group justified nav-tabs\">\r\n    <a style=\"border-radius:0px;\" class=\"btn btn-default btn-xs\" href=\"#Tab1\" toggle=\"on\" active-class=\"active\"><i class=\"fa fa-bars\"><\/i><br/>News<\/a>\r\n    <a style=\"border-radius:0px;\" class=\"btn btn-default btn-xs\" href=\"#Tab2\" toggle=\"on\" active-class=\"active\"><i class=\"fa fa-calendar\"><\/i><br/>Schedule<\/a>\r\n    <a style=\"border-radius:0px;\" class=\"btn btn-default btn-xs\" href=\"#Tab3\" toggle=\"on\" active-class=\"active\"><i class=\"fa fa-signal\"><\/i><br/>Scores<\/a>\r\n<\/div>\r\n<div class=\"tab-content\" style=\"margin-bottom:-20px;background:#000;\">\r\n    <div class=\"tab-pane\" toggleable active-class=\"active\" default=\"active\" id=\"Tab1\" exclusion-group=\"myTabs\">\r\n        <div class=\"media-list list-group\">\r\n            <div class=\"list-group-item\" ng-show=\"newsfeeds == null || newsfeeds.length == 0\">\r\n                <div class=\"alert alert-info\">No data available<\/div>\r\n            <\/div>\r\n            <a href=\"#app/Athletics/AthleticsDetails?index={{$index}}&type=news\" class=\"list-group-item\" ng-repeat=\"feed in newsfeeds | filter:filterText\">\r\n                <img src=\"{{feed.mediaGroups[0].contents[0].url}}\" style=\"width:80px;height:80px;border-radius:10px;margin-right:10px;\" class=\"pull-left\"><\/img>\r\n                <h5 style=\"color:#241057;font-weight:bold;\">{{feed[\"title\"]}}<\/h5>\r\n                <p class=\"text-left\" style='color:#5C5C5C'>{{feed.contentSnippet}}<\/p><span class=\"small\" style='color:#2370D8'>Posted Date: {{feed.publishedDate}}<\/span>\r\n            <\/a>\r\n        <\/div>\r\n    <\/div>\r\n    <div class=\"tab-pane\" toggleable active-class=\"active\" id=\"Tab2\" exclusion-group=\"myTabs\">\r\n        <div class=\"list-group\">\r\n            <div class=\"list-group-item\" ng-show=\"schfeeds == null || schfeeds.channel.item.length == 0\">\r\n                <div class=\"alert alert-info\">No data available<\/div>\r\n            <\/div>\r\n            <a href=\"#app/Athletics/AthleticsDetails?index={{$index}}&type=sch\" class=\"list-group-item clear-fix\" ng-repeat=\"feed in schfeeds.channel.item\">\r\n                <div class=\"row\">\r\n                    <div>\r\n                        <h5 style=\"color:#241057;font-weight:bold;\">{{feed.title}}<\/h5>\r\n                        <!--<p class=\"text-left\">{{feed.startdate}}<\/p>-->\r\n                        <span ng-bind=\"convertToDate(feed.date) | date:'medium'\"><\/span>\r\n                    <\/div>\r\n                    <!--<div class=\"col-xs-4 col-md-4\">\r\n                        <img src=\"{{feed.opponentlogo}}\" style=\"width:80px;height:80px;border-radius:10px;margin-right:10px;\" class=\"pull-right\"><\/img>\r\n                    <\/div>-->\r\n                <\/div>\r\n            <\/a>\r\n        <\/div>\r\n    <\/div>\r\n\r\n    <div class=\"tab-pane\" toggleable active-class=\"active\" id=\"Tab3\" exclusion-group=\"myTabs\">\r\n        <div class=\"list-group\">\r\n            <div class=\"list-group-item\" ng-show=\"scofeeds == null || scofeeds.length == 0\">\r\n                <div class=\"alert alert-info\">No data available<\/div>\r\n            <\/div>\r\n            \r\n            \r\n            <a style=\"box-shadow:0 0 10px #000;background:#fff;color:#000;border-bottom:2px solid #fff;\" href=\"#app/Athletics/AthleticsDetails?index={{$index}}&type=sco\" class=\"list-group-item\" ng-repeat=\"feed in scofeeds\">\r\n                <h5 style=\"font-size:15px;font-weight:bold;color:#002D56 !important\">{{feed.title}}<\/h5>\r\n                <p class=\"text-left\">{{feed.description}}<\/p>\r\n                <p class=\"text-left\">Score: {{feed.score}}<\/p><span class=\"small\" style='color:#6FDBF7' ng-bind=\"convertToDate(feed.date) | date:'EEE, MMM dd, y h:mm a'\"><\/span>\r\n<\/a>\r\n        \r\n            <!--<a href=\"#app/Athletics/AthleticsDetails?index={{$index}}&type=sco\" class=\"list-group-item clear-fix\" ng-repeat=\"feed in scofeeds\">\r\n                <div class=\"row\">\r\n                    <div class=\"col-xs-8 col-md-8\">\r\n\r\n                        <h5 style=\"color:#241057;font-weight:bold;\">{{feed.hometeam}} vs {{feed.opponent}}<\/h5>\r\n                        <p class=\"text-left\">{{feed.date}}<\/p>\r\n\r\n                    <\/div>\r\n                    <div class=\"col-xs-4 col-md-4\">\r\n\r\n                        <div ng-show=\"feed.team_score != ''\" style=\"float:left;padding:7px 0 ;width:50%;color:#fff;font-size:22px;text-align: center;margin:0 ;background: gray;\">{{feed.team_score}}<\/div>\r\n                        <div ng-show=\"feed.team_score == null || feed.team_score == ''\" style=\"float:left;padding:7px 0 ;width:50%;color:#fff;font-size:22px;text-align: center;margin:0 ;background: gray;\">X<\/div>\r\n                        <div ng-show=\"feed.opponent_score != ''\" style=\"float:left;padding:7px 0 ;width:50%;color:#fff;font-size:22px;text-align: center;margin:0 ;background: gray;\"> {{feed.opponent_score}}<\/div>\r\n                        <div ng-show=\"feed.opponent_score == null || feed.opponent_score == ''\" style=\"float:left;padding:7px 0 ;width:50%;color:#fff;font-size:22px;text-align: center;margin:0 ;background: gray;\">X<\/div>\r\n                        <div style=\"text-align: center;font-size:19px;\">{{feed.result}}<\/div>\r\n                    <\/div>\r\n                <\/div>\r\n            <\/a>-->\r\n        <\/div>\r\n    <\/div>\r\n<\/div>"
        },
        {
          "pageid": "Athletics",
          "pageTemplate": "<div><\/div>",
          "pageprocessor": "function pageprocessorAthletics(pagedef, $scope, $routeParams, $compile, $http, $rootScope, $sce, $window, $location) {$.blockUI();$scope.feedlist = $.parseJSON(pagedef.feedlist).feedlist;$rootScope.feedlist = $.parseJSON(pagedef.feedlist).feedlist;var template = pagedef.datatemplate;var data1 = $compile($(template))($scope);$(\"#appContent\").append(data1);$.unblockUI();}",
          "feedlist": "{\r\n    \"feedlist\": [\r\n        {\r\n            \"name\": \"Baseball (Men's)\",\r\n            \"newsurl\": \"http://wcsuathletics.com/sports/bsb/headlines-featured?feed=rss_2.0\",\r\n            \"schurl\": \"http://wcsuathletics.com/sports/bsb/2015-16/schedule?print=rss\",\r\n            \"scourl\": \"http://wcsuathletics.com/sports/bsb/2014-15/schedule?print=rss\"\r\n        },\r\n        {\r\n            \"name\": \"Basketball (Men's)\",\r\n            \"newsurl\": \"http://wcsuathletics.com/sports/mbkb/headlines-featured?feed=rss_2.0\",\r\n            \"schurl\": \"http://wcsuathletics.com/sports/mbkb/2015-16/schedule?print=rss\",\r\n            \"scourl\": \"http://wcsuathletics.com/sports/mbkb/2014-15/schedule?print=rss\"\r\n        },\r\n        {\r\n            \"name\": \"Football (Men's)\",\r\n            \"newsurl\": \"http://wcsuathletics.com/sports/fball/headlines-featured?feed=rss_2.0\",\r\n            \"schurl\": \"http://wcsuathletics.com/sports/fball/2015-16/schedule?print=rss\",\r\n            \"scourl\": \"http://wcsuathletics.com/sports/fball/2014-15/schedule?print=rss\"\r\n        },\r\n        {\r\n            \"name\": \"Lacrosse (Men's)\",\r\n            \"newsurl\": \"http://wcsuathletics.com/sports/mlax/headlines-featured?feed=rss_2.0\",\r\n            \"schurl\": \"http://wcsuathletics.com/sports/mlax/2015-16/schedule?print=rss\",\r\n            \"scourl\": \"http://wcsuathletics.com/sports/mlax/2014-15/schedule?print=rss\"\r\n        },\r\n        {\r\n            \"name\": \"Soccer (Men's)\",\r\n            \"newsurl\": \"http://wcsuathletics.com/sports/msoc/headlines-featured?feed=rss_2.0\",\r\n            \"schurl\": \"http://wcsuathletics.com/sports/msoc/2015-16/schedule?print=rss\",\r\n            \"scourl\": \"http://wcsuathletics.com/sports/msoc/2014-15/schedule?print=rss\"\r\n        },\r\n        {\r\n            \"name\": \"Tennis (Men's)\",\r\n            \"newsurl\": \"http://wcsuathletics.com/sports/mten/headlines-featured?feed=rss_2.0\",\r\n            \"schurl\": \"http://wcsuathletics.com/sports/mten/2015-16/schedule?print=rss\",\r\n            \"scourl\": \"http://wcsuathletics.com/sports/mten/2014-15/schedule?print=rss\"\r\n        },\r\n        {\r\n            \"name\": \"Basketball (Women's)\",\r\n            \"newsurl\": \"http://wcsuathletics.com/sports/wbkb/headlines-featured?feed=rss_2.0\",\r\n            \"schurl\": \"http://wcsuathletics.com/sports/wbkb/2015-16/schedule?print=rss\",\r\n            \"scourl\": \"http://wcsuathletics.com/sports/wbkb/2014-15/schedule?print=rss\"\r\n        },\r\n        {\r\n            \"name\": \"FieldHockey (Women's)\",\r\n            \"newsurl\": \"http://wcsuathletics.com/sports/fh/headlines-featured?feed=rss_2.0\",\r\n            \"schurl\": \"http://wcsuathletics.com/sports/fh/2015-16/schedule?print=rss\",\r\n            \"scourl\": \"http://wcsuathletics.com/sports/fh/2014-15/schedule?print=rss\"\r\n        },\r\n        {\r\n            \"name\": \"Lacrosse (Women's)\",\r\n            \"newsurl\": \"http://wcsuathletics.com/sports/wlax/headlines-featured?feed=rss_2.0\",\r\n            \"schurl\": \"http://wcsuathletics.com/sports/wlax/2015-16/schedule?print=rss\",\r\n            \"scourl\": \"http://wcsuathletics.com/sports/wlax/2014-15/schedule?print=rss\"\r\n        },\r\n        {\r\n            \"name\": \"Soccer (Women's)\",\r\n            \"newsurl\": \"http://wcsuathletics.com/sports/wsoc/headlines-featured?feed=rss_2.0\",\r\n            \"schurl\": \"http://wcsuathletics.com/sports/wsoc/2015-16/schedule?print=rss\",\r\n            \"scourl\": \"http://wcsuathletics.com/sports/wsoc/2014-15/schedule?print=rss\"\r\n        },\r\n        {\r\n            \"name\": \"Softball (Women's)\",\r\n            \"newsurl\": \"http://wcsuathletics.com/sports/sball/headlines-featured?feed=rss_2.0\",\r\n            \"schurl\": \"http://wcsuathletics.com/sports/sball/2015-16/schedule?print=rss\",\r\n            \"scourl\": \"http://wcsuathletics.com/sports/sball/2014-15/schedule?print=rss\"\r\n        },\r\n        {\r\n            \"name\": \"Swimming and Diving (Women's)\",\r\n            \"newsurl\": \"http://wcsuathletics.com/sports/wswimdive/headlines-featured?feed=rss_2.0\",\r\n            \"schurl\": \"http://wcsuathletics.com/sports/wswimdive/2015-16/schedule?print=rss\",\r\n            \"scourl\": \"http://wcsuathletics.com/sports/wswimdive/2014-15/schedule?print=rss\"\r\n        },\r\n        {\r\n            \"name\": \"Tennis (Women's)\",\r\n            \"newsurl\": \"http://wcsuathletics.com/sports/wten/headlines-featured?feed=rss_2.0\",\r\n            \"schurl\": \"http://wcsuathletics.com/sports/wten/2015-16/schedule?print=rss\",\r\n            \"scourl\": \"http://wcsuathletics.com/sports/wten/2014-15/schedule?print=rss\"\r\n        },\r\n        {\r\n            \"name\": \"Volleyball (Women's)\",\r\n            \"newsurl\": \"http://wcsuathletics.com/sports/wvball/headlines-featured?feed=rss_2.0\",\r\n            \"schurl\": \"http://wcsuathletics.com/sports/wvball/2015-16/schedule?print=rss\",\r\n            \"scourl\": \"http://wcsuathletics.com/sports/wvball/2014-15/schedule?print=rss\"\r\n        }\r\n    ]\r\n}",
          "datatemplate": "<style>\r\n    #branding {\r\n        display: none;\r\n    }\r\n<\/style>\r\n<div class=\"list-group\" style=\"margin:10px;\">\r\n    <a href=\"#app/Athletics/AthleticsFeed?index={{$index}}\" class=\"list-group-item\" style=\"background-color:#4c4c4c;padding:5px;margin-top:5px;border-radius:5px\" ng-repeat=\"feed in feedlist | filter:filterText\">\r\n        <div class=\"clearfix\" style=\"color: #fff;\" >\r\n            <h4>&nbsp;&nbsp;<i class=\"fa fa-star\" style=\"color:#000;\"><\/i>&nbsp;&nbsp;{{feed.name}}\r\n        \t\t<i style=\"padding-top:3px;\" class=\"fa fa-chevron-right pull-right\"><\/i>\r\n            <\/h4>\r\n        <\/div>\r\n    <\/a>\r\n<\/div>"
        }
      ]
    },
    {
      "id": 10588,
      "name": "Library4",
      "displayname": "Library",
      "logo": "WCSU/Library4.png",
      "logourl": "WCSU/Library4.png",
      "description": "Library",
      "appFeatureType": "Public",
      "roles": null,
      "showInDock": false,
      "showInHome": true,
      "networkrequired": true,
      "analytics": true,
      "pages": 
      [
        {
          "pageid": "Library4",
          "pageTemplate": "<div><\/div>",
          "url": "http://library.wcsu.edu/m/",
          "pageprocessor": "function pageprocessorLibrary4(pagedef, $scope, $routeParams, $compile, $http, $rootScope, $sce, $window, $location) {\r\n  if(window.device) {\r\n      $.blockUI();\r\n   }\r\n\r\n    var iabRef = window.open(pagedef.url, \"_blank\", \"location=yes,hidden=yes;enableViewportScale=yes\");\r\n    var hideBlockUi = function() {\r\n        iabRef.show();\r\n        $.unblockUI();\r\n    };\r\n\r\n    var iabClose = function(data) {\r\n        window.location.href = \"index.html#home\";\r\n$.unblockUI();\r\n    };\r\n    iabRef.addEventListener(\"exit\", iabClose);\r\n  \r\n    var loadStop = function(data) {\r\n    \thideBlockUi();\r\n\r\n    };\r\n    iabRef.addEventListener(\"loadstop\", loadStop);\r\n}"
        }
      ]
    },
    {
      "id": 10591,
      "name": "Facebook",
      "displayname": "Facebook",
      "logo": "WCSU/Facebook.png",
      "logourl": "WCSU/Facebook.png",
      "description": "Facebook",
      "appFeatureType": "Public",
      "roles": "public",
      "showInDock": false,
      "showInHome": true,
      "networkrequired": true,
      "analytics": true,
      "pages": 
      [
        {
          "pageid": "Facebook",
          "pageTemplate": "<div><\/div>",
          "pageprocessor": "function pageprocessorFacebook(pagedef, $scope, $routeParams, $compile, $http, $rootScope, $sce, $window, $location) {\r\n   if(window.device) {\r\n      $.blockUI();\r\n   }\r\n\r\n    var iabRef = window.open(pagedef.url, \"_blank\", \"location=yes,hidden=yes;enableViewportScale=yes\");\r\n    var hideBlockUi = function() {\r\n        iabRef.show();\r\n        $.unblockUI();\r\n    };\r\n\r\n    var iabClose = function(data) {\r\n        window.location.href = \"index.html#home\";\r\n$.unblockUI();\r\n    };\r\n    iabRef.addEventListener(\"exit\", iabClose);\r\n  \r\n    var loadStop = function(data) {\r\n    \thideBlockUi();\r\n\r\n    };\r\n    iabRef.addEventListener(\"loadstop\", loadStop);\r\n\r\n}",
          "url": "https://m.facebook.com/westconn"
        }
      ]
    },
    {
      "id": 10594,
      "name": "Twitter",
      "displayname": "Twitter",
      "logo": "WCSU/Twitter.png",
      "logourl": "WCSU/Twitter.png",
      "description": "Twitter",
      "appFeatureType": "Public",
      "roles": "public",
      "showInDock": false,
      "showInHome": true,
      "networkrequired": true,
      "analytics": true,
      "pages": 
      [
        {
          "pageid": "Twitter",
          "pageTemplate": "<div><\/div>",
          "url": "http://www.twitter.com/westconn",
          "pageprocessor": "function pageprocessorTwitter(pagedef, $scope, $routeParams, $compile, $http, $rootScope, $sce, $window, $location) {\r\n   if(window.device) {\r\n      $.blockUI();\r\n   }\r\n    var iabRef = window.open(pagedef.url, \"_blank\",\"location=yes,enableViewportScale=yes\");\r\n    var hideBlockUi = function() {\r\n        iabRef.show();\r\n        $.unblockUI();\r\n    };\r\n\r\n    var iabClose = function(data) {\r\n        window.location.href = \"index.html#home\";\r\n$.unblockUI();\r\n    };\r\n    iabRef.addEventListener(\"exit\", iabClose);\r\n\r\n    var loadStop = function(data) {\r\n        hideBlockUi();\r\n\r\n    };\r\n    iabRef.addEventListener(\"loadstop\", loadStop);\r\n}"
        }
      ]
    }
  ],
  "pages": 
  [
  ]
}